riscv_no_abs/vcd/RV32I_postplace.vcd
$date
	Sat Feb 12 19:47:30 2022
$end
$version
	ModelSim Version 6.2g
$end
$timescale
	1ns
$end
$scope module rv32i_tb $end
$var wire 1 ! opcode_fetch [6] $end
$var wire 1 " opcode_fetch [5] $end
$var wire 1 # opcode_fetch [4] $end
$var wire 1 $ opcode_fetch [3] $end
$var wire 1 % opcode_fetch [2] $end
$var wire 1 & opcode_fetch [1] $end
$var wire 1 ' opcode_fetch [0] $end
$var wire 1 ( opcode_decode [6] $end
$var wire 1 ) opcode_decode [5] $end
$var wire 1 * opcode_decode [4] $end
$var wire 1 + opcode_decode [3] $end
$var wire 1 , opcode_decode [2] $end
$var wire 1 - opcode_decode [1] $end
$var wire 1 . opcode_decode [0] $end
$var wire 1 / opcode_execute [6] $end
$var wire 1 0 opcode_execute [5] $end
$var wire 1 1 opcode_execute [4] $end
$var wire 1 2 opcode_execute [3] $end
$var wire 1 3 opcode_execute [2] $end
$var wire 1 4 opcode_execute [1] $end
$var wire 1 5 opcode_execute [0] $end
$var wire 1 6 funct3_fetch [2] $end
$var wire 1 7 funct3_fetch [1] $end
$var wire 1 8 funct3_fetch [0] $end
$var wire 1 9 funct3_decode [2] $end
$var wire 1 : funct3_decode [1] $end
$var wire 1 ; funct3_decode [0] $end
$var wire 1 < funct3_execute [2] $end
$var wire 1 = funct3_execute [1] $end
$var wire 1 > funct3_execute [0] $end
$var wire 1 ? rs1_fetch [4] $end
$var wire 1 @ rs1_fetch [3] $end
$var wire 1 A rs1_fetch [2] $end
$var wire 1 B rs1_fetch [1] $end
$var wire 1 C rs1_fetch [0] $end
$var wire 1 D rs2_fetch [4] $end
$var wire 1 E rs2_fetch [3] $end
$var wire 1 F rs2_fetch [2] $end
$var wire 1 G rs2_fetch [1] $end
$var wire 1 H rs2_fetch [0] $end
$var wire 1 I rd_fetch [4] $end
$var wire 1 J rd_fetch [3] $end
$var wire 1 K rd_fetch [2] $end
$var wire 1 L rd_fetch [1] $end
$var wire 1 M rd_fetch [0] $end
$var wire 1 N rs1_decode [4] $end
$var wire 1 O rs1_decode [3] $end
$var wire 1 P rs1_decode [2] $end
$var wire 1 Q rs1_decode [1] $end
$var wire 1 R rs1_decode [0] $end
$var wire 1 S rs2_decode [4] $end
$var wire 1 T rs2_decode [3] $end
$var wire 1 U rs2_decode [2] $end
$var wire 1 V rs2_decode [1] $end
$var wire 1 W rs2_decode [0] $end
$var wire 1 X rd_decode [4] $end
$var wire 1 Y rd_decode [3] $end
$var wire 1 Z rd_decode [2] $end
$var wire 1 [ rd_decode [1] $end
$var wire 1 \ rd_decode [0] $end
$var wire 1 ] rs1_execute [4] $end
$var wire 1 ^ rs1_execute [3] $end
$var wire 1 _ rs1_execute [2] $end
$var wire 1 ` rs1_execute [1] $end
$var wire 1 a rs1_execute [0] $end
$var wire 1 b rs2_execute [4] $end
$var wire 1 c rs2_execute [3] $end
$var wire 1 d rs2_execute [2] $end
$var wire 1 e rs2_execute [1] $end
$var wire 1 f rs2_execute [0] $end
$var wire 1 g rd_execute [4] $end
$var wire 1 h rd_execute [3] $end
$var wire 1 i rd_execute [2] $end
$var wire 1 j rd_execute [1] $end
$var wire 1 k rd_execute [0] $end
$var wire 1 l clock $end
$var wire 1 m reset $end
$var wire 1 n write_data_mem [31] $end
$var wire 1 o write_data_mem [30] $end
$var wire 1 p write_data_mem [29] $end
$var wire 1 q write_data_mem [28] $end
$var wire 1 r write_data_mem [27] $end
$var wire 1 s write_data_mem [26] $end
$var wire 1 t write_data_mem [25] $end
$var wire 1 u write_data_mem [24] $end
$var wire 1 v write_data_mem [23] $end
$var wire 1 w write_data_mem [22] $end
$var wire 1 x write_data_mem [21] $end
$var wire 1 y write_data_mem [20] $end
$var wire 1 z write_data_mem [19] $end
$var wire 1 { write_data_mem [18] $end
$var wire 1 | write_data_mem [17] $end
$var wire 1 } write_data_mem [16] $end
$var wire 1 ~ write_data_mem [15] $end
$var wire 1 !! write_data_mem [14] $end
$var wire 1 "! write_data_mem [13] $end
$var wire 1 #! write_data_mem [12] $end
$var wire 1 $! write_data_mem [11] $end
$var wire 1 %! write_data_mem [10] $end
$var wire 1 &! write_data_mem [9] $end
$var wire 1 '! write_data_mem [8] $end
$var wire 1 (! write_data_mem [7] $end
$var wire 1 )! write_data_mem [6] $end
$var wire 1 *! write_data_mem [5] $end
$var wire 1 +! write_data_mem [4] $end
$var wire 1 ,! write_data_mem [3] $end
$var wire 1 -! write_data_mem [2] $end
$var wire 1 .! write_data_mem [1] $end
$var wire 1 /! write_data_mem [0] $end
$var wire 1 0! data_mem_adr [31] $end
$var wire 1 1! data_mem_adr [30] $end
$var wire 1 2! data_mem_adr [29] $end
$var wire 1 3! data_mem_adr [28] $end
$var wire 1 4! data_mem_adr [27] $end
$var wire 1 5! data_mem_adr [26] $end
$var wire 1 6! data_mem_adr [25] $end
$var wire 1 7! data_mem_adr [24] $end
$var wire 1 8! data_mem_adr [23] $end
$var wire 1 9! data_mem_adr [22] $end
$var wire 1 :! data_mem_adr [21] $end
$var wire 1 ;! data_mem_adr [20] $end
$var wire 1 <! data_mem_adr [19] $end
$var wire 1 =! data_mem_adr [18] $end
$var wire 1 >! data_mem_adr [17] $end
$var wire 1 ?! data_mem_adr [16] $end
$var wire 1 @! data_mem_adr [15] $end
$var wire 1 A! data_mem_adr [14] $end
$var wire 1 B! data_mem_adr [13] $end
$var wire 1 C! data_mem_adr [12] $end
$var wire 1 D! data_mem_adr [11] $end
$var wire 1 E! data_mem_adr [10] $end
$var wire 1 F! data_mem_adr [9] $end
$var wire 1 G! data_mem_adr [8] $end
$var wire 1 H! data_mem_adr [7] $end
$var wire 1 I! data_mem_adr [6] $end
$var wire 1 J! data_mem_adr [5] $end
$var wire 1 K! data_mem_adr [4] $end
$var wire 1 L! data_mem_adr [3] $end
$var wire 1 M! data_mem_adr [2] $end
$var wire 1 N! data_mem_adr [1] $end
$var wire 1 O! data_mem_adr [0] $end
$var wire 1 P! memwrite $end
$var wire 1 Q! read_data_mem [31] $end
$var wire 1 R! read_data_mem [30] $end
$var wire 1 S! read_data_mem [29] $end
$var wire 1 T! read_data_mem [28] $end
$var wire 1 U! read_data_mem [27] $end
$var wire 1 V! read_data_mem [26] $end
$var wire 1 W! read_data_mem [25] $end
$var wire 1 X! read_data_mem [24] $end
$var wire 1 Y! read_data_mem [23] $end
$var wire 1 Z! read_data_mem [22] $end
$var wire 1 [! read_data_mem [21] $end
$var wire 1 \! read_data_mem [20] $end
$var wire 1 ]! read_data_mem [19] $end
$var wire 1 ^! read_data_mem [18] $end
$var wire 1 _! read_data_mem [17] $end
$var wire 1 `! read_data_mem [16] $end
$var wire 1 a! read_data_mem [15] $end
$var wire 1 b! read_data_mem [14] $end
$var wire 1 c! read_data_mem [13] $end
$var wire 1 d! read_data_mem [12] $end
$var wire 1 e! read_data_mem [11] $end
$var wire 1 f! read_data_mem [10] $end
$var wire 1 g! read_data_mem [9] $end
$var wire 1 h! read_data_mem [8] $end
$var wire 1 i! read_data_mem [7] $end
$var wire 1 j! read_data_mem [6] $end
$var wire 1 k! read_data_mem [5] $end
$var wire 1 l! read_data_mem [4] $end
$var wire 1 m! read_data_mem [3] $end
$var wire 1 n! read_data_mem [2] $end
$var wire 1 o! read_data_mem [1] $end
$var wire 1 p! read_data_mem [0] $end
$var wire 1 q! instruction_mem_adr [31] $end
$var wire 1 r! instruction_mem_adr [30] $end
$var wire 1 s! instruction_mem_adr [29] $end
$var wire 1 t! instruction_mem_adr [28] $end
$var wire 1 u! instruction_mem_adr [27] $end
$var wire 1 v! instruction_mem_adr [26] $end
$var wire 1 w! instruction_mem_adr [25] $end
$var wire 1 x! instruction_mem_adr [24] $end
$var wire 1 y! instruction_mem_adr [23] $end
$var wire 1 z! instruction_mem_adr [22] $end
$var wire 1 {! instruction_mem_adr [21] $end
$var wire 1 |! instruction_mem_adr [20] $end
$var wire 1 }! instruction_mem_adr [19] $end
$var wire 1 ~! instruction_mem_adr [18] $end
$var wire 1 !" instruction_mem_adr [17] $end
$var wire 1 "" instruction_mem_adr [16] $end
$var wire 1 #" instruction_mem_adr [15] $end
$var wire 1 $" instruction_mem_adr [14] $end
$var wire 1 %" instruction_mem_adr [13] $end
$var wire 1 &" instruction_mem_adr [12] $end
$var wire 1 '" instruction_mem_adr [11] $end
$var wire 1 (" instruction_mem_adr [10] $end
$var wire 1 )" instruction_mem_adr [9] $end
$var wire 1 *" instruction_mem_adr [8] $end
$var wire 1 +" instruction_mem_adr [7] $end
$var wire 1 ," instruction_mem_adr [6] $end
$var wire 1 -" instruction_mem_adr [5] $end
$var wire 1 ." instruction_mem_adr [4] $end
$var wire 1 /" instruction_mem_adr [3] $end
$var wire 1 0" instruction_mem_adr [2] $end
$var wire 1 1" instruction_mem_adr [1] $end
$var wire 1 2" instruction_mem_adr [0] $end
$var wire 1 3" instruction_fetch [31] $end
$var wire 1 4" instruction_fetch [30] $end
$var wire 1 5" instruction_fetch [29] $end
$var wire 1 6" instruction_fetch [28] $end
$var wire 1 7" instruction_fetch [27] $end
$var wire 1 8" instruction_fetch [26] $end
$var wire 1 9" instruction_fetch [25] $end
$var wire 1 :" instruction_fetch [24] $end
$var wire 1 ;" instruction_fetch [23] $end
$var wire 1 <" instruction_fetch [22] $end
$var wire 1 =" instruction_fetch [21] $end
$var wire 1 >" instruction_fetch [20] $end
$var wire 1 ?" instruction_fetch [19] $end
$var wire 1 @" instruction_fetch [18] $end
$var wire 1 A" instruction_fetch [17] $end
$var wire 1 B" instruction_fetch [16] $end
$var wire 1 C" instruction_fetch [15] $end
$var wire 1 D" instruction_fetch [14] $end
$var wire 1 E" instruction_fetch [13] $end
$var wire 1 F" instruction_fetch [12] $end
$var wire 1 G" instruction_fetch [11] $end
$var wire 1 H" instruction_fetch [10] $end
$var wire 1 I" instruction_fetch [9] $end
$var wire 1 J" instruction_fetch [8] $end
$var wire 1 K" instruction_fetch [7] $end
$var wire 1 L" instruction_fetch [6] $end
$var wire 1 M" instruction_fetch [5] $end
$var wire 1 N" instruction_fetch [4] $end
$var wire 1 O" instruction_fetch [3] $end
$var wire 1 P" instruction_fetch [2] $end
$var wire 1 Q" instruction_fetch [1] $end
$var wire 1 R" instruction_fetch [0] $end
$var wire 1 S" instruction_decode [31] $end
$var wire 1 T" instruction_decode [30] $end
$var wire 1 U" instruction_decode [29] $end
$var wire 1 V" instruction_decode [28] $end
$var wire 1 W" instruction_decode [27] $end
$var wire 1 X" instruction_decode [26] $end
$var wire 1 Y" instruction_decode [25] $end
$var wire 1 Z" instruction_decode [24] $end
$var wire 1 [" instruction_decode [23] $end
$var wire 1 \" instruction_decode [22] $end
$var wire 1 ]" instruction_decode [21] $end
$var wire 1 ^" instruction_decode [20] $end
$var wire 1 _" instruction_decode [19] $end
$var wire 1 `" instruction_decode [18] $end
$var wire 1 a" instruction_decode [17] $end
$var wire 1 b" instruction_decode [16] $end
$var wire 1 c" instruction_decode [15] $end
$var wire 1 d" instruction_decode [14] $end
$var wire 1 e" instruction_decode [13] $end
$var wire 1 f" instruction_decode [12] $end
$var wire 1 g" instruction_decode [11] $end
$var wire 1 h" instruction_decode [10] $end
$var wire 1 i" instruction_decode [9] $end
$var wire 1 j" instruction_decode [8] $end
$var wire 1 k" instruction_decode [7] $end
$var wire 1 l" instruction_decode [6] $end
$var wire 1 m" instruction_decode [5] $end
$var wire 1 n" instruction_decode [4] $end
$var wire 1 o" instruction_decode [3] $end
$var wire 1 p" instruction_decode [2] $end
$var wire 1 q" instruction_decode [1] $end
$var wire 1 r" instruction_decode [0] $end
$var wire 1 s" instruction_execute [31] $end
$var wire 1 t" instruction_execute [30] $end
$var wire 1 u" instruction_execute [29] $end
$var wire 1 v" instruction_execute [28] $end
$var wire 1 w" instruction_execute [27] $end
$var wire 1 x" instruction_execute [26] $end
$var wire 1 y" instruction_execute [25] $end
$var wire 1 z" instruction_execute [24] $end
$var wire 1 {" instruction_execute [23] $end
$var wire 1 |" instruction_execute [22] $end
$var wire 1 }" instruction_execute [21] $end
$var wire 1 ~" instruction_execute [20] $end
$var wire 1 !# instruction_execute [19] $end
$var wire 1 "# instruction_execute [18] $end
$var wire 1 ## instruction_execute [17] $end
$var wire 1 $# instruction_execute [16] $end
$var wire 1 %# instruction_execute [15] $end
$var wire 1 &# instruction_execute [14] $end
$var wire 1 '# instruction_execute [13] $end
$var wire 1 (# instruction_execute [12] $end
$var wire 1 )# instruction_execute [11] $end
$var wire 1 *# instruction_execute [10] $end
$var wire 1 +# instruction_execute [9] $end
$var wire 1 ,# instruction_execute [8] $end
$var wire 1 -# instruction_execute [7] $end
$var wire 1 .# instruction_execute [6] $end
$var wire 1 /# instruction_execute [5] $end
$var wire 1 0# instruction_execute [4] $end
$var wire 1 1# instruction_execute [3] $end
$var wire 1 2# instruction_execute [2] $end
$var wire 1 3# instruction_execute [1] $end
$var wire 1 4# instruction_execute [0] $end
$var wire 1 5# memread $end
$upscope $end
$enddefinitions $end
#0
$dumpvars
0l
xm
x0!
xP!
xq!
x3"
xS"
xs"
x5#
x?"
xD"
x:"
xG"
xL"
x_"
xd"
xZ"
xg"
xl"
x!#
x&#
xz"
x)#
x.#
xT"
xU"
xV"
xW"
xX"
xY"
x["
x\"
x]"
x^"
x`"
xa"
xb"
xc"
xe"
xf"
xh"
xi"
xj"
xk"
xm"
xn"
xo"
xp"
xq"
xr"
xt"
xu"
xv"
xw"
xx"
xy"
x{"
x|"
x}"
x~"
x"#
x##
x$#
x%#
x'#
x(#
x*#
x+#
x,#
x-#
x/#
x0#
x1#
x2#
x3#
x4#
x4"
x5"
x6"
x7"
x8"
x9"
x;"
x<"
x="
x>"
x@"
xA"
xB"
xC"
xE"
xF"
xH"
xI"
xJ"
xK"
xM"
xN"
xO"
xP"
xQ"
xR"
xr!
xs!
xt!
xu!
xv!
xw!
xx!
xy!
xz!
x{!
x|!
x}!
x~!
x!"
x""
x#"
x$"
x%"
x&"
x'"
x("
x)"
x*"
x+"
x,"
x-"
x."
x/"
x0"
x1"
x2"
x1!
x2!
x3!
x4!
x5!
x6!
x7!
x8!
x9!
x:!
x;!
x<!
x=!
x>!
x?!
x@!
xA!
xB!
xC!
xD!
xE!
xF!
xG!
xH!
xI!
xJ!
xK!
xL!
xM!
xN!
xO!
xQ!
xR!
xS!
xT!
xU!
xV!
xW!
xX!
xY!
xZ!
x[!
x\!
x]!
x^!
x_!
x`!
xa!
xb!
xc!
xd!
xe!
xf!
xg!
xh!
xi!
xj!
xk!
xl!
xm!
xn!
xo!
xp!
xn
xo
xp
xq
xr
xs
xt
xu
xv
xw
xx
xy
xz
x{
x|
x}
x~
x!!
x"!
x#!
x$!
x%!
x&!
x'!
x(!
x)!
x*!
x+!
x,!
x-!
x.!
x/!
x!
x"
x#
x$
x%
x&
x'
x(
x)
x*
x+
x,
x-
x.
x/
x0
x1
x2
x3
x4
x5
x6
x7
x8
x9
x:
x;
x<
x=
x>
x?
x@
xA
xB
xC
xD
xE
xF
xG
xH
xI
xJ
xK
xL
xM
xN
xO
xP
xQ
xR
xS
xT
xU
xV
xW
xX
xY
xZ
x[
x\
x]
x^
x_
x`
xa
xb
xc
xd
xe
xf
xg
xh
xi
xj
xk
$end
#1
0m
0p!
0o!
0n!
0m!
0l!
0k!
0j!
0i!
0h!
0g!
0f!
0e!
0d!
0c!
0b!
0a!
0`!
0_!
0^!
0]!
0\!
0[!
0Z!
0Y!
0X!
0W!
0V!
0U!
0T!
0S!
0R!
0Q!
0R"
0Q"
0P"
0O"
0N"
0M"
0L"
0K"
0J"
0I"
0H"
0G"
0F"
0E"
0D"
0C"
0B"
0A"
0@"
0?"
0>"
0="
0<"
0;"
0:"
09"
08"
07"
06"
05"
04"
03"
0'
0&
0%
0$
0#
0"
0!
0M
0L
0K
0J
0I
08
07
06
0C
0B
0A
0@
0?
0H
0G
0F
0E
0D
0##
0*#
0|"
0A!
0!!
0B!
0"!
0C!
0#!
0D!
0$!
0E!
0&!
0K!
0L!
0M!
0N!
0O!
0~"
0`"
0b"
0g"
0h"
0+#
0,#
0-#
01"
0!#
0_
0h
0%!
0F!
0G!
0'!
0H!
0I!
0J!
0x"
0Z"
0["
0\"
0]"
0_"
0a"
0c"
0i"
0+!
0,!
0-!
0.!
0/!
0^"
05!
07!
08!
0v
09!
0w
0:!
0x
0;!
0y
0<!
0z
0=!
0{
0>!
0|
0?!
0}
0@!
0~
0n
06!
04!
0r"
04#
0j"
0k"
02"
00"
0/"
0."
0-"
0,"
0+"
0*"
0q"
03#
0"#
0f
0d
0Q
0O
0Y
0X
0k
0j
0i
0]
05#
0)#
0W
0V
0U
0T
0S
0R
0P
0N
0\
0[
0Z
0.
0-
05
04
0^
0g
0z"
0$#
0b
0`
0%#
0}"
0{"
0a
03!
01!
00!
0e
0c
0o
0p
0q
0r
0s
0t
02!
0~!
0}!
0|!
0{!
0z!
0y!
0x!
0w!
0v!
0u!
0t!
0s!
0u
0r!
0q!
0d"
0&#
0e"
0f"
0(#
0&"
0%"
0$"
0#"
0""
0!"
0S"
0s"
0T"
0t"
0U"
0u"
0V"
0v"
0W"
0w"
0X"
0Y"
0y"
0'#
0.#
0m"
0/#
0n"
00#
01#
0p"
02#
0)"
0("
0'"
0P!
0(!
0)!
0*!
0o"
0l"
0;
0:
09
0>
0<
0=
03
02
01
00
0/
0,
0+
0*
0)
0(
#2
1l
#4
0l
1m
1R"
1Q"
1N"
1G"
1>"
1="
1<"
1'
1&
1#
1I
1H
1G
1F
0H
0G
0F
#6
1l
10"
1r"
1q"
1n"
1g"
1^"
1]"
1\"
1.
1-
1*
1X
1W
1V
1U
1P"
1I"
0G"
1F"
1D"
1C"
1B"
1A"
1@"
1?"
1;"
1:"
19"
18"
17"
16"
15"
14"
13"
1%
1K
0I
18
16
1C
1B
1A
1@
1?
0W
0V
0U
0C
0B
0A
0@
0?
#8
0l
#10
1l
0g"
1b"
1`"
1~"
1|"
13#
1/"
00"
14#
1i"
1c"
1a"
1_"
1["
1Z"
1)#
1}"
1f"
1d"
1p"
10#
1Y"
1X"
1W"
1V"
1U"
1T"
1S"
1Z
0X
1R
1Q
1P
1O
1N
1f
1e
1d
15
14
11
1g
1;
19
1,
0P"
0F"
0D"
0C"
0B"
0@"
0?"
0>"
0="
0f
0e
0d
0%
08
06
0R
0Q
0P
0O
0N
1A
#12
0l
#14
1l
1t"
1u"
1v"
1w"
1x"
1y"
12#
1&#
1(#
1z"
1{"
1!#
1##
1%#
1+#
1"#
1$#
0b"
0`"
1s"
10"
0c"
0_"
0)#
0f"
0d"
0p"
0]"
0^"
1N!
1M!
1O!
13
1>
1<
1a
1`
1_
1^
1]
1i
0g
0;
09
0,
1P"
1K"
1F"
1D"
1C"
1B"
1@"
1?"
1>"
1="
0a
0`
0_
0^
0]
1%
1M
18
16
1C
1B
1@
1?
1P
0C
0B
0A
0@
0?
#16
0l
#18
1l
0~"
0}"
0/"
1."
1k"
02#
0&#
0(#
1<!
1;!
0!#
1:!
0%#
19!
0"#
0$#
10!
11!
1b"
1`"
1A!
1@!
1?!
1>!
00"
1=!
1C!
17!
1c"
1_"
18!
12!
13!
14!
15!
1f"
1d"
1p"
1]"
1^"
0N!
16!
0O!
1\
03
0>
0<
1R
1Q
1O
1N
1;
19
1,
0P"
0F"
0D"
0B"
0@"
0?"
0>"
0="
0<"
0;"
09"
08"
07"
06"
05"
04"
03"
0%
08
06
1_
0R
0Q
0P
0O
0N
1C
1A
#20
0l
#22
1l
1}"
12#
1&#
1(#
1~"
1!#
1%#
1"#
1$#
0b"
0`"
10"
1-#
0_"
0M!
0S"
0T"
0U"
0V"
0W"
0f"
0d"
0X"
0p"
0]"
0^"
0Y"
0["
0\"
13
1>
1<
1a
1`
1^
1]
1k
0;
09
0,
1P"
1M"
1H"
0C"
0A"
0:"
14"
0a
0`
0_
0^
0]
1%
1"
1J
0C
0A
1R
1P
#24
0l
#26
1l
0y"
0x"
0w"
0v"
0u"
0t"
0s"
0{"
0}"
02#
0&#
0(#
0|"
0~"
0!#
0"#
0$#
1/"
00"
0Z"
0a"
0c"
1h"
1m"
1M!
1T"
1p"
1L!
03
0>
0<
0R
0P
1Y
1,
1)
0P"
0M"
1C"
1A"
1@"
1>"
1="
1<"
1;"
1:"
19"
18"
17"
16"
15"
13"
1a
1_
0%
0"
1C
1A
1@
#28
0l
#30
1l
12#
1t"
0z"
10"
1Z"
1a"
1c"
0m"
0##
0%#
1*#
1/#
1S"
1U"
1V"
1W"
1X"
1Y"
1["
1\"
0p"
1]"
1^"
1`"
1K!
1.!
1-!
1/!
13
10
0,
0)
0a
0_
1h
0K"
0H"
1G"
0C"
0A"
0@"
0>"
0<"
0:"
09"
08"
07"
06"
05"
04"
03"
0M
0J
1I
0C
0A
0@
1R
1P
1O
#32
0l
#34
1l
0C!
0M!
09!
0:!
0;!
0<!
0L!
00!
0A!
0@!
1-"
0k"
0h"
1g"
0T"
0."
0?!
0/"
0>!
1"#
1~"
1}"
1|"
1{"
1y"
1x"
1w"
1v"
1u"
1s"
02#
0=!
08!
07!
06!
1z"
00"
0Z"
0a"
0c"
04!
1##
1%#
05!
0/#
0S"
0U"
0V"
0W"
0X"
0Y"
03!
0\"
02!
0^"
0`"
0K!
0.!
0-!
0/!
0\
0Y
1X
03
00
0R
0P
0O
0N"
1M"
0I"
0G"
1E"
1A"
0="
1<"
0;"
1:"
0#
1"
0K
0I
17
1A
1a
1_
1^
1F
1D
#36
0l
#38
1l
1C!
1M!
19!
1:!
1;!
1<!
1L!
1A!
1@!
0-#
0*#
1)#
0t"
0g"
1?!
01!
1>!
0"#
0~"
0["
0]"
1e"
0|"
0i"
1m"
0n"
0y"
0x"
0w"
0v"
0u"
0s"
1G!
1I!
1E!
1=!
18!
17!
16!
0z"
10"
1Z"
1a"
14!
0##
0%#
15!
1N!
1H!
1J!
1O!
13!
1\"
1B!
12!
1F!
1K!
1D!
0k
0h
1g
0Z
0X
0a
0_
0^
1:
0*
1)
1P
1N"
0M"
1I"
0E"
0:"
1U
1S
1#
0"
07
0D
1K
0F
#40
0l
#42
1l
0@!
0A!
0<!
0;!
0:!
09!
0)#
0M!
0C!
0?!
0>!
0{"
0}"
1'#
0e"
1|"
1i"
0m"
1n"
0+#
1/#
00#
0G!
0I!
0E!
0=!
08!
07!
06!
1z"
00"
0Z"
04!
1##
05!
1/"
0H!
0J!
0O!
03!
0B!
02!
0F!
0K!
0D!
0i
0g
1=
0:
1*
0)
01
10
0S
1_
1G"
0A"
1>"
0<"
1:"
18"
17"
16"
15"
14"
13"
1d
1b
1Z
0U
1I
0A
#44
0l
#46
1l
1@!
1A!
1<!
1;!
1:!
19!
1P!
1C!
1?!
1>!
0'#
1+#
0/#
10#
1=!
18!
17!
16!
0z"
10"
1Z"
1S"
1T"
14!
1U"
1V"
15!
1W"
1X"
0\"
1^"
0a"
1g"
0L!
13!
0N!
12!
1.!
1,!
11!
10!
0=
11
00
0b
0P
1X
0N"
1M"
0I"
0G"
1E"
1A"
0>"
1<"
08"
07"
06"
05"
04"
03"
1i
0d
0#
1"
0K
0I
17
1A
1F
1D
#48
0l
#50
1l
0P!
1s"
1t"
1u"
1v"
1w"
1x"
0|"
1~"
0##
1)#
1#!
1~
1!!
1z
1y
1x
1w
1}
1|
1{
1v
1u
1t
1z"
00"
0S"
0T"
0U"
0V"
1r
1s
1q
1p
0W"
0X"
1o
1\"
0^"
1a"
0g"
1n
0/"
1."
1e"
0i"
1m"
0.!
0,!
0n"
1M!
0_
1g
1o!
1m!
1P
0Z
0X
1:
0*
1)
1N"
0M"
1I"
0E"
0:"
0o!
0m!
1#
0"
07
0D
1U
1S
1K
0F
#52
0l
#54
1l
0Z"
1I!
1E!
1G!
00#
1/#
0+#
1'#
1H!
0s"
0t"
0u"
0v"
0w"
0x"
1|"
0~"
1##
0)#
0#!
0~
0!!
0z
0y
0x
0w
0}
0|
0{
0v
0u
0t
1K!
10"
1O!
1F!
0r
0s
0q
0p
1D!
0o
0n
0e"
1i"
0m"
1n"
1B!
0M!
0S
01
10
0i
0g
1=
1_
0:
1*
0)
1G"
0A"
1="
1:"
1d
1b
1I
0A
1Z
0U
#56
0l
#58
1l
0H!
0'#
1+#
0/#
10#
0G!
0E!
0I!
1Z"
1#!
1~
1!!
1z
1y
1x
1w
1}
1|
1{
1v
1u
1t
0z"
1P!
0K!
00"
0O!
0F!
1r
1s
1q
1p
0D!
1o
1/"
1]"
0a"
1g"
1n
1"!
1%!
1&!
1/!
1$!
1)!
1(!
1+!
1'!
0B!
1M!
0=
11
00
0b
0P
1X
0N"
1M"
0I"
0G"
1E"
1A"
0="
1i
0d
0#
1"
0K
0I
17
1A
1F
1D
#60
0l
#62
1l
1-!
1)#
0##
1}"
1e"
0i"
1m"
0n"
1z"
0P!
10"
0]"
1a"
0g"
0"!
0%!
0&!
0/!
0$!
0)!
0(!
0+!
0'!
1L!
0M!
1p!
1l!
1j!
1i!
1h!
1g!
1f!
1e!
1d!
1c!
1b!
1a!
1`!
1_!
1^!
1]!
1\!
1[!
1Z!
1Y!
1X!
1W!
1V!
1U!
1T!
1S!
1R!
1Q!
1g
0_
1:
0Z
0X
0*
1)
1P
1N"
0M"
1I"
0E"
0:"
0p!
0l!
0j!
0i!
0h!
0g!
0f!
0e!
0d!
0c!
0b!
0a!
0`!
0_!
0^!
0]!
0\!
0[!
0Z!
0Y!
0X!
0W!
0V!
0U!
0T!
0S!
0R!
0Q!
1U
1S
1#
0"
07
0D
1K
0F
#64
0l
#66
1l
0-!
0)#
1##
0}"
1'#
0e"
1i"
0m"
1n"
0+#
0?!
1/#
00#
0/"
0."
0Z"
0>!
0=!
08!
07!
06!
04!
0-"
1,"
1N!
1K!
0<!
0;!
0:!
09!
01!
00!
0C!
00"
0A!
0@!
0#!
0{
0v
05!
03!
0y
0x
02!
0w
0u
0t
0q
0p
0n
0}
0|
0!!
0r
0s
0z
0~
0o
0L!
1M!
0i
0g
1_
1=
0:
1*
0)
01
10
0S
1G"
0A"
1>"
1;"
1:"
19"
18"
17"
16"
15"
14"
13"
1d
1b
1Z
0U
1I
0A
#68
0l
#70
1l
1-!
0'#
1+#
1?!
0/#
10#
1Z"
1>!
1=!
18!
17!
16!
14!
0z"
1P!
0N!
0K!
1<!
1;!
1:!
19!
11!
10!
1C!
10"
1A!
1@!
15!
13!
12!
1S"
1T"
1U"
1V"
1W"
1X"
1Y"
1["
1^"
0a"
1g"
1.!
1+!
1L!
0M!
0=
11
00
0b
0P
1X
0N"
1M"
0I"
0G"
1E"
1A"
0>"
0;"
09"
08"
07"
06"
05"
04"
03"
1i
0d
0#
1"
0K
0I
17
1A
1F
1D
#72
0l
#74
1l
1q
1s
1~
1!!
1n
1o
1w
1x
1y
1z
1r
1t
1u
1v
1{
1|
1}
1#!
1)#
0##
1~"
1{"
1y"
1x"
1w"
1v"
1u"
1t"
1s"
0-!
1p
1/"
1,!
1e"
0i"
1m"
0n"
1z"
0P!
00"
0S"
0T"
0U"
0V"
0W"
0X"
0Y"
0["
0^"
1a"
0g"
0.!
0+!
1M!
1o!
1n!
1l!
1g
0_
1:
0Z
0X
0*
1)
1P
1N"
0M"
1I"
0E"
0:"
0o!
0n!
0l!
1#
0"
07
0D
1U
1S
1K
0F
#76
0l
#78
1l
0|
0}
0#!
0)#
1##
0~"
0{"
0y"
0x"
0w"
0v"
0u"
0t"
0s"
0{
0v
0u
0t
0r
0z
0y
0x
0w
0o
0n
0!!
0~
0s
0q
0p
1'#
0+#
1/#
00#
0Z"
1E!
0,!
0e"
1i"
0m"
1n"
1G!
1I!
1K!
10"
1J!
1B!
1H!
1O!
1F!
1D!
0i
0g
1_
1=
01
10
0S
0:
1*
0)
1G"
0A"
1>"
1="
1;"
1d
1b
1Z
0U
1I
0A
#80
0l
#82
1l
0/#
10#
1+#
0'#
1p
1q
1s
1~
1!!
1n
1o
1w
1x
1y
1z
1r
1t
1u
1v
0E!
1,!
1{
1#!
1}
1|
0G!
0I!
0K!
0z"
1P!
00"
0/"
1."
1["
1]"
1^"
0a"
1g"
1"!
1%!
1&!
1/!
1$!
1)!
1-!
0J!
0B!
0H!
0O!
0F!
0D!
1*!
1(!
1+!
1'!
11
00
0=
0b
0P
1X
0N"
1M"
0I"
0G"
1E"
1A"
0>"
0="
0;"
1:"
1i
0d
0#
1"
0K
0I
17
1A
1F
1D
#84
0l
#86
1l
1)#
0##
1~"
1}"
1{"
0M!
0L!
1Z"
1e"
0i"
1m"
0n"
1K!
0P!
10"
0["
0]"
0^"
1a"
0g"
0"!
0%!
0&!
0/!
0$!
0)!
0*!
0(!
0+!
0'!
1g
0_
1:
0Z
0X
0*
1)
1P
1p!
1n!
1m!
1l!
1k!
1j!
1i!
1h!
1g!
1f!
1e!
1d!
1c!
1b!
1a!
1`!
1_!
1^!
1]!
1\!
1[!
1Z!
1Y!
1X!
1W!
1V!
1U!
1T!
1S!
1R!
1Q!
0p!
0n!
0m!
0l!
0k!
0j!
0i!
0h!
0g!
0f!
0e!
0d!
0c!
0b!
0a!
0`!
0_!
0^!
0]!
0\!
0[!
0Z!
0Y!
0X!
0W!
0V!
0U!
0T!
0S!
0R!
0Q!
1N"
0M"
1I"
0E"
0:"
1U
1S
1#
0"
07
0D
1K
0F
#88
0l
